Base de travail avec impactR
…
La plupart des fonctions de impactR sont écrites en supposant que les données fournies peuvent être converties en tibble, puisqu’elles utilisent largement le tidyverse.

Supposons que nous ayons une feuille ‘survey’ composée comme suit :

data(survey)
survey <- survey |> tibble::as_tibble(survey)

survey

## # A tibble: 44 × 12
##    type            name  label hint  required choice_filter calculation relevant
##    <chr>           <chr> <chr> <lgl> <lgl>    <chr>         <chr>       <chr>   
##  1 start           start <NA>  NA    NA       <NA>          <NA>        <NA>    
##  2 end             end   <NA>  NA    NA       <NA>          <NA>        <NA>    
##  3 today           today <NA>  NA    NA       <NA>          <NA>        <NA>    
##  4 deviceid        devi… <NA>  NA    NA       <NA>          <NA>        <NA>    
##  5 select_one l_e… i_en… Code… NA    TRUE     <NA>          <NA>        <NA>    
##  6 select_one l_g… i_en… Sexe… NA    TRUE     <NA>          <NA>        <NA>    
##  7 hidden          i_ad… Quel… NA    FALSE    <NA>          <NA>        <NA>    
##  8 hidden          i_vi… Quel… NA    FALSE    <NA>          <NA>        <NA>    
##  9 select_one l_s… i_se… Quel… NA    TRUE     <NA>          <NA>        <NA>    
## 10 calculate       i_in… <NA>  NA    TRUE     <NA>          jr:choice-… <NA>    
## # … with 34 more rows, and 4 more variables: constraint <chr>,
## #   constraint_message <chr>, given_name <lgl>, default <chr>

La première chose à faire avec l’objet ‘survey’, car il sera utilisé ailleurs : il faut séparer en deux la colonne ‘type’.

# Miseà part l'argument 'col_to_split' (la colonne à séparer), les autres paramètres sont les paramètres par défaut
survey <- survey |>  
  split_survey(
    col_to_split = "type",
    into = c("type", "list_name"),
    sep = " ",
    fill = "right")

survey

## # A tibble: 44 × 13
##    type  list_name name  label hint  required choice_filter calculation relevant
##    <chr> <chr>     <chr> <chr> <lgl> <lgl>    <chr>         <chr>       <chr>   
##  1 start <NA>      start <NA>  NA    NA       <NA>          <NA>        <NA>    
##  2 end   <NA>      end   <NA>  NA    NA       <NA>          <NA>        <NA>    
##  3 today <NA>      today <NA>  NA    NA       <NA>          <NA>        <NA>    
##  4 devi… <NA>      devi… <NA>  NA    NA       <NA>          <NA>        <NA>    
##  5 sele… l_enum_id i_en… Code… NA    TRUE     <NA>          <NA>        <NA>    
##  6 sele… l_genre   i_en… Sexe… NA    TRUE     <NA>          <NA>        <NA>    
##  7 hidd… <NA>      i_ad… Quel… NA    FALSE    <NA>          <NA>        <NA>    
##  8 hidd… <NA>      i_vi… Quel… NA    FALSE    <NA>          <NA>        <NA>    
##  9 sele… l_secteur i_se… Quel… NA    TRUE     <NA>          <NA>        <NA>    
## 10 calc… <NA>      i_in… <NA>  NA    TRUE     <NA>          jr:choice-… <NA>    
## # … with 34 more rows, and 4 more variables: constraint <chr>,
## #   constraint_message <chr>, given_name <lgl>, default <chr>
…
