Base de travail avec impactR • impactR
…
La plupart des fonctions de impactR sont écrites en
supposant que les données fournies peuvent être converties en tibble,
puisqu’elles utilisent largement le tidyverse.

Supposons que nous ayons une feuille ‘survey’ composée comme suit
:

data(survey)
survey <- survey |> tibble::as_tibble(survey)

survey

## # A tibble: 44 × 12
##    type        name  label hint  requi…¹ choic…² calcu…³ relev…⁴ const…⁵ const…⁶
##    <chr>       <chr> <chr> <lgl> <lgl>   <chr>   <chr>   <chr>   <chr>   <chr>  
##  1 start       start NA    NA    NA      NA      NA      NA      NA      NA     
##  2 end         end   NA    NA    NA      NA      NA      NA      NA      NA     
##  3 today       today NA    NA    NA      NA      NA      NA      NA      NA     
##  4 deviceid    devi… NA    NA    NA      NA      NA      NA      NA      NA     
##  5 select_one… i_en… Code… NA    TRUE    NA      NA      NA      NA      NA     
##  6 select_one… i_en… Sexe… NA    TRUE    NA      NA      NA      NA      NA     
##  7 hidden      i_ad… Quel… NA    FALSE   NA      NA      NA      NA      NA     
##  8 hidden      i_vi… Quel… NA    FALSE   NA      NA      NA      NA      NA     
##  9 select_one… i_se… Quel… NA    TRUE    NA      NA      NA      NA      NA     
## 10 calculate   i_in… NA    NA    TRUE    NA      jr:cho… NA      NA      NA     
## # … with 34 more rows, 2 more variables: given_name <lgl>, default <chr>, and
## #   abbreviated variable names ¹​required, ²​choice_filter, ³​calculation,
## #   ⁴​relevant, ⁵​constraint, ⁶​constraint_message
## # ℹ Use `print(n = ...)` to see more rows, and `colnames()` to see all variable names

La première chose à faire avec l’objet ‘survey’, car il sera utilisé
ailleurs : il faut séparer en deux la colonne ‘type’.

# Miseà part l'argument 'col_to_split' (la colonne à séparer), les autres paramètres sont les paramètres par défaut
survey <- survey |>  
  split_survey(
    col_to_split = "type",
    into = c("type", "list_name"),
    sep = " ",
    fill = "right")

survey

## # A tibble: 44 × 13
##    type       list_n…¹ name  label hint  requi…² choic…³ calcu…⁴ relev…⁵ const…⁶
##    <chr>      <chr>    <chr> <chr> <lgl> <lgl>   <chr>   <chr>   <chr>   <chr>  
##  1 start      NA       start NA    NA    NA      NA      NA      NA      NA     
##  2 end        NA       end   NA    NA    NA      NA      NA      NA      NA     
##  3 today      NA       today NA    NA    NA      NA      NA      NA      NA     
##  4 deviceid   NA       devi… NA    NA    NA      NA      NA      NA      NA     
##  5 select_one l_enum_… i_en… Code… NA    TRUE    NA      NA      NA      NA     
##  6 select_one l_genre  i_en… Sexe… NA    TRUE    NA      NA      NA      NA     
##  7 hidden     NA       i_ad… Quel… NA    FALSE   NA      NA      NA      NA     
##  8 hidden     NA       i_vi… Quel… NA    FALSE   NA      NA      NA      NA     
##  9 select_one l_secte… i_se… Quel… NA    TRUE    NA      NA      NA      NA     
## 10 calculate  NA       i_in… NA    NA    TRUE    NA      jr:cho… NA      NA     
## # … with 34 more rows, 3 more variables: constraint_message <chr>,
## #   given_name <lgl>, default <chr>, and abbreviated variable names ¹​list_name,
## #   ²​required, ³​choice_filter, ⁴​calculation, ⁵​relevant, ⁶​constraint
## # ℹ Use `print(n = ...)` to see more rows, and `colnames()` to see all variable names
…
