Some workflow • impactR
…
# If you haven't done so 
# devtools::install_github("impactR)
library(impactR)

Below, let’s use the ‘airports’ dataset from package nycflights13

# Load dataset in environment
data(data)

# Show the first lines and types of airports' tibble
data <- data |> tibble::as_tibble()
data

## # A tibble: 30 × 52
##    uuid  cluster   weights start               end                
##    <chr> <chr>       <dbl> <dttm>              <dttm>             
##  1 x1    wendou_1      0.8 2021-10-18 09:08:24 2021-10-18 10:01:35
##  2 x2    wendou_1      0.8 2021-10-20 09:14:47 2021-10-20 10:05:23
##  3 x3    wendou_2      0.8 2021-10-20 10:11:14 2021-10-20 11:00:07
##  4 x4    wendou_2      0.8 2021-10-18 09:08:24 2021-10-20 12:02:57
##  5 x5    wendou_1      0.8 2021-10-20 10:11:14 2021-10-20 15:02:31
##  6 x6    wendou_2      0.8 2021-10-20 14:14:36 2021-10-20 16:04:35
##  7 x7    wendou_1      0.8 2021-10-20 15:09:11 2021-10-20 10:26:34
##  8 x8    wendou_1      0.8 2021-10-20 09:44:15 2021-10-20 11:12:48
##  9 x9    gnarala_1     1.2 2021-10-20 11:12:05 2021-10-21 11:12:48
## 10 x10   gnarala_2     1.2 2021-10-20 14:14:36 2021-10-22 11:12:48
## # … with 20 more rows, and 47 more variables: today <dttm>, deviceid <chr>,
## #   i_enum_id <dbl>, i_enum_genre <chr>, i_admin2 <chr>, i_ville <chr>,
## #   i_secteur <chr>, i_info_secteur <chr>, i_zad <chr>, i_zad_1 <chr>,
## #   i_consensus <chr>, i_consensus_note <chr>, i_enquete_age <dbl>,
## #   i_enquete_genre <chr>, i_statut <chr>, i_note_statut <lgl>,
## #   i_statut_1 <chr>, c_note <lgl>, c_chef_menage <chr>,
## #   c_n_chef_menage_genre <chr>, c_n_chef_menage_age <dbl>, …
…
We can check the logical check spreadsheet again:

check_check_list(check_list, data)

## [1] TRUE

This time, it’s ok, the function gives TRUE, so we can proceed with the production of the cleaning log.

log_check_list <- make_log_from_check_list(data, survey, check_list, uuid, today, i_enum_id, i_zad)

log_check_list

## # A tibble: 57 × 17
##    id_ch…¹ today               i_enu…² i_zad uuid  quest…³ quest…⁴ why   feedb…⁵
##    <chr>   <dttm>                <dbl> <chr> <chr> <chr>   <chr>   <chr> <chr>  
##  1 id2     2021-10-20 00:00:00      12 wend… x7    survey… ""      Duré… Verifi…
##  2 id3     2021-10-18 00:00:00       8 wend… x1    survey… ""      Duré… Verifi…
##  3 id3     2021-10-20 00:00:00       3 wend… x2    survey… ""      Duré… Verifi…
##  4 id3     2021-10-20 00:00:00       3 wend… x3    survey… ""      Duré… Verifi…
##  5 id3     2021-10-20 00:00:00       3 wend… x4    survey… ""      Duré… Verifi…
##  6 id3     2021-10-20 00:00:00       3 wend… x5    survey… ""      Duré… Verifi…
##  7 id3     2021-10-20 00:00:00       3 wend… x6    survey… ""      Duré… Verifi…
##  8 id3     2021-10-20 00:00:00      12 wend… x8    survey… ""      Duré… Verifi…
##  9 id3     2021-10-20 00:00:00       1 gnar… x9    survey… ""      Duré… Verifi…
## 10 id3     2021-10-20 00:00:00       5 gnar… x10   survey… ""      Duré… Verifi…
## # … with 47 more rows, 8 more variables: action <chr>, old_value <chr>,
## #   new_value <lgl>, type <chr>, other_parent_question <chr>,
## #   other_old_value <chr>, other_new_value <chr>, checkdate <chr>, and
## #   abbreviated variable names ¹​id_check, ²​i_enum_id, ³​question_name,
## #   ⁴​question_label, ⁵​feedback
Full cleaning log and export

Finally, we just need to combine all these cleaning logs into one. We can then export it to an excel file.

log <- list(log_outliers, log_check_list, log_others) |> 
  purrr::map(~ .x |> dplyr::mutate(dplyr::across(.fns = as.character))) |> 
  dplyr::bind_rows() |> 
  readr::type_convert()

It is also possible to use the make_all_logs function which combines these three functions and outputs a single cleanup log.

log <- make_all_logs(data, survey, check_list, "autre_", uuid, today, i_enum_id, i_zad)
log

## # A tibble: 63 × 17
##    id_check today      i_enum…¹ i_zad uuid  quest…² quest…³ why   feedb…⁴ action
##    <chr>    <date>        <dbl> <chr> <chr> <chr>   <chr>   <chr> <chr>   <chr> 
##  1 id2      2021-10-20       12 wend… x7    survey… NA      Duré… Verifi… urgen…
##  2 id3      2021-10-18        8 wend… x1    survey… NA      Duré… Verifi… check 
##  3 id3      2021-10-20        3 wend… x2    survey… NA      Duré… Verifi… check 
##  4 id3      2021-10-20        3 wend… x3    survey… NA      Duré… Verifi… check 
##  5 id3      2021-10-20        3 wend… x4    survey… NA      Duré… Verifi… check 
##  6 id3      2021-10-20        3 wend… x5    survey… NA      Duré… Verifi… check 
##  7 id3      2021-10-20        3 wend… x6    survey… NA      Duré… Verifi… check 
##  8 id3      2021-10-20       12 wend… x8    survey… NA      Duré… Verifi… check 
##  9 id3      2021-10-20        1 gnar… x9    survey… NA      Duré… Verifi… check 
## 10 id3      2021-10-20        5 gnar… x10   survey… NA      Duré… Verifi… check 
## # … with 53 more rows, 7 more variables: old_value <chr>, new_value <chr>,
## #   type <chr>, other_parent_question <chr>, other_old_value <chr>,
## #   other_new_value <lgl>, checkdate <chr>, and abbreviated variable names
## #   ¹​i_enum_id, ²​question_name, ³​question_label, ⁴​feedback
…
